#ifndef HELP_HEADER
"        \6AleVT Online Help System       ",
"  \22`p0`0    p `0pppp                    ",
"\4\35\22\177 \177j5`p  \177 j5 j5           \7Version \34",
"\4\35\22\177,\177j5\177.! +t>! j5           \7  1.2.3 \34",
"  \22# #\42!\42#   \42   \42!                     ",
#else
HELP_HEADER
#endif
"                                   \0032/4 ",
"\6\15Starting AleVT:                       ",
"\6\15Starting AleVT:                       ",
"\24 ####################################  ",
"    -finetune\6<-4..4 | auto>       \2 1  ",
"    -child\6<ppp[.ss]>                   ",
"    [-parent]\6<ppp[.ss]>          \002900  ",
"    -[no]erc                  \2enabled  ",
"    -[no]bell                 \2enabled  ",
"    -charset\6<latin-1/2/koi8-r/         ",
"             \6iso8859-7>      \2latin-1  ",
"    -progname\6<name>                    ",
"    -pid\6<pid>                          ",
"                                        ",
"                                        ",
"\24 pppppppppppppppppppppppppppppppppppp  ",
"          (Click on\0032/4\7for next page)  ",
"                                        ",
"\4\35\7Back 900     Index 900    Next 903\13 \34",
"\1Page 100 \2Page 200 \3Page 300 \6Page 400\34",
