#ifndef HELP_HEADER
"        \6AleVT Online Help System       ",
"  \22`p0`0    p `0pppp                    ",
"\4\35\22\177 \177j5`p  \177 j5 j5           \7Version \34",
"\4\35\22\177,\177j5\177.! +t>! j5           \7  1.2.3 \34",
"  \22# #\42!\42#   \42   \42!                     ",
#else
HELP_HEADER
#endif
"                                   \0033/4 ",
"\6\15Starting AleVT:                       ",
"\6\15Starting AleVT:                       ",
"\24 ####################################  ",
"\6 Order is important! Each page number  ",
"\6 opens a window with the previously    ",
"\6 given geometry, device and display.   ",
"                                        ",
"  ppp[.ss]\6stand for a page number and  ",
"\6 an optional subpage number.  If the   ",
"\6 subpage number is omitted the first   ",
"\6 transmitted subpage is shown.         ",
"                                        ",
"\6 The\7-child\6option requires a parent   ",
"\6 window.  So it must be preceded by    ",
"\24 pppppppppppppppppppppppppppppppppppp  ",
"          (Click on\0033/4\7for next page)  ",
"                                        ",
"\4\35\7Back 900     Index 900    Next 903\13 \34",
"\1Page 100 \2Page 200 \3Page 300 \6Page 400\34",
