#ifndef HELP_HEADER
"        \6AleVT Online Help System       ",
"  \22`p0`0    p `0pppp                    ",
"\4\35\22\177 \177j5`p  \177 j5 j5           \7Version \34",
"\4\35\22\177,\177j5\177.! +t>! j5           \7  1.1.2 \34",
"  \22# #\42!\42#   \42   \42!                     ",
#else
HELP_HEADER
#endif
"                                        ",
"\6\15QuickClick:                           ",
"\6\15QuickClick:                           ",
"\24 ####################################  ",
"\6   100 200 300 400 500 600 700 800     ",
"\6   101 201 301 401 501 601 701 801     ",
"\6   110 210 310 410 510 610 710 810     ",
"\6   120\006220 320 420 520 620 720 820   \13 ",
"\6   130 230 330 430 530 630 730 830     ",
"\6   140\006240 340 440 540 640 740 840   \13 ",
"\6   150 250 350 450 550 650 750 850     ",
"\6   160\006260 360 460 560 660 760 860     ",
"\6   170 270 370 470 570 670 770 870     ",
"\6   180\006280 380 480 580 680 780 880     ",
"\6   190 290 390 490 590 690 790 890     ",
"\24 pppppppppppppppppppppppppppppppppppp  ",
"                                        ",
"                                        ",
"\4\35\7Back 915     Index 900    Next ---  \34",
"\1Page 100 \2Page 200 \3Page 300 \6Page 400\34",
